%YAML 1.1
%TAG !u! tag:unity3d.com,2011:
--- !u!114 &11400000
MonoBehaviour:
  m_ObjectHideFlags: 0
  m_PrefabParentObject: {fileID: 0}
  m_PrefabInternal: {fileID: 0}
  m_GameObject: {fileID: 0}
  m_Enabled: 1
  m_EditorHideFlags: 0
  m_Script: {fileID: 11500000, guid: 54df4404f11bbd9468b77ccf105c65f1, type: 3}
  m_Name: Example
  m_EditorClassIdentifier: 
  icon: {fileID: 10913, guid: 0000000000000000f000000000000000, type: 0}
  description: Description.
  abilities:
    abilities:
    - {fileID: 11400000, guid: e6277f456f777424e86e6d4bc94d6d3a, type: 2}
    - {fileID: 11400000, guid: ba897a308b32b384fa6d848f77cbe633, type: 2}
    - {fileID: 11400000, guid: e6277f456f777424e86e6d4bc94d6d3a, type: 2}
  placement:
    inUse: 1
    size:
      x: 3
      y: 3
    center:
      x: 0
      y: 0
  attack:
    hasProjectile: 1
    speed: 1
    someImportantFloat: 1
    anotherImportantFloat: 1
    attackGO: {fileID: 0}
    sound: {fileID: 0}
